Final_Report
…
##   See gargle's "Non-interactive auth" vignette for more details:

##   <]8;;https://gargle.r-lib.org/articles/non-interactive-auth.htmlhttps://gargle.r-lib.org/articles/non-interactive-auth.html]8;;>

## ℹ The googlesheets4 package is using a cached token for
##   ']8;;mailto:soyandresromero@gmail.comsoyandresromero@gmail.com]8;;'.

## ✔ Reading from "Survey Results".

## ✔ Range ''Final''.

dataset

## # A tibble: 6,440 × 27
##    Submission          Ich bestäti…¹ Ich e…² Mir i…³ Ich b…⁴ Name  Alter Gesch…⁵
##    <dttm>              <chr>         <chr>   <chr>   <chr>   <chr> <dbl> <chr>  
##  1 2023-01-09 11:09:45 Ja            Ja      Ja      Ja      Jan T    21 männli…
##  2 2023-01-09 11:09:45 Ja            Ja      Ja      Ja      Jan T    21 männli…
##  3 2023-01-09 11:09:45 Ja            Ja      Ja      Ja      Jan T    21 männli…
##  4 2023-01-09 11:09:45 Ja            Ja      Ja      Ja      Jan T    21 männli…
##  5 2023-01-09 11:09:45 Ja            Ja      Ja      Ja      Jan T    21 männli…
##  6 2023-01-09 11:09:45 Ja            Ja      Ja      Ja      Jan T    21 männli…
##  7 2023-01-09 11:09:45 Ja            Ja      Ja      Ja      Jan T    21 männli…
##  8 2023-01-09 11:09:45 Ja            Ja      Ja      Ja      Jan T    21 männli…
##  9 2023-01-09 11:09:45 Ja            Ja      Ja      Ja      Jan T    21 männli…
## 10 2023-01-09 11:09:45 Ja            Ja      Ja      Ja      Jan T    21 männli…
## # … with 6,430 more rows, 19 more variables: Geburtsort <chr>,
## #   `Höchster Bildungsabschluss` <chr>, Fach <chr>, Beruf <chr>,
## #   Muttersprache <chr>, `Andere Sprachen?` <chr>, Sprachen <chr>,
## #   `Besten Aufnahme` <chr>, Charaktereigenschaften <chr>, Aufnahme <dbl>,
## #   Score <dbl>, `Sprache 1` <chr>, `Level 1` <chr>, `Sprache 2` <chr>,
## #   `Level 2` <chr>, `Sprache 3` <chr>, `Level 3` <chr>, `Sprache 4` <chr>,
## #   `Level 4` <chr>, and abbreviated variable names …
…
# Counting the number of Languages
df['Languages'] <- 4 - is.na(df$`Language 1`) - is.na(df$`Language 2`) - is.na(df$`Language 3`) - is.na(df$`Language 4`)
df$Languages <- factor(df$Languages, ordered = TRUE, levels = c(1,2,3,4))

# Column with the german preference
df['German Preference?'] <- ifelse((df$`Best Speaker`=="Sprecher/in 1" | df$`Best Speaker`=="Sprecher/in 2"),"Yes","No")
df$German_Pref_01 <- as.numeric(as.factor(df$`German Preference?`))-1
df

## # A tibble: 2,460 × 23
##    Name    Age Gender   Place of…¹ Highe…² Subject Occup…³ Mothe…⁴ Best …⁵ Trait
##    <chr> <dbl> <fct>    <chr>      <ord>   <chr>   <chr>   <fct>   <fct>   <fct>
##  1 Jan T    21 männlich Deutschla… Abitur… <NA>    <NA>    Deutsch Sprech… Inte…
##  2 Jan T    21 männlich Deutschla… Abitur… <NA>    <NA>    Deutsch Sprech… Höfl…
##  3 Jan T    21 männlich Deutschla… Abitur… <NA>    <NA>    Deutsch Sprech… Selb…
##  4 Jan T    21 männlich Deutschla… Abitur… <NA>    <NA>    Deutsch Sprech… Komp…
##  5 Jan T    21 männlich Deutschla… Abitur… <NA>    <NA>    Deutsch Sprech… Arro…
##  6 Jan T    21 männlich Deutschla… Abitur… <NA>    <NA>    Deutsch Sprech… Kons…
##  7 Jan T    21 männlich Deutschla… Abitur… <NA>    <NA>    Deutsch Sprech… Freu…
##  8 Jan T    21 männlich Deutschla… Abitur… <NA>    <NA>    Deutsch Sprech… Symp…
##  9 Jan T    21 männlich Deutschla… Abitur… <NA>    <NA>    Deutsch Sprech… Grob 
## 10 Jan T    21 männlich Deutschla… Abitur… <NA>    <NA>    Deutsch Sprech… Gebi…
## # … with 2,450 more rows, 13 more variables: Speaker <dbl>, Score <dbl>,
## #   `Language 1` <chr>, `Level 1` <chr>, `Language 2` <chr>, `Level 2` <chr>,
## #   `Language 3` <chr>, `Level 3` <chr>, `Language 4` <chr>, `Level 4` <chr>,
## #   Languages <ord>, `German Preference?` <chr>, German_Pref_01 <dbl>, and
## #   abbreviated variable names ¹​`Place of Birth`, ²​`Highest Degree`,
## #   ³​Occupation, ⁴​`Mother tongue`, ⁵​`Best Speaker`
…
traits_d <- c("Intelligent","Höflich","Selbstbewusst","Kompetent","Arrogant","Konservativ","Freundlich","Sympathisch","Grob","Gebildet","Emotional","Locker","Ernst","Aggressiv","Streng")
traits_e <- c("Intelligent","Polite","Confident","Competent","Arrogant","Conservative","Friendly","Sympathetic","Rough","Educated","Emotional","Loose","Serious","Aggressive","Strict")
trait_group <- c("Positive","Positive","Positive","Positive","Negative","Neutral","Positive","Positive","Negative", "Positive","Neutral","Neutral","Neutral","Negative","Neutral")

df$Trait <- mapvalues(df$Trait, traits_d, traits_e)
df$`Trait Group` <- mapvalues(df$Trait, traits_e, trait_group)

abschluss <- c("Unterer Schulabschluss", "Abitur oder gleichwertiger Abschluss","Bachelor","Postgraduierten-Abschluss","Master-Abschluss","Doktorat")
degree <- c("Lower secondary", "Baccalaureate or equivalent", "Bachelor's", "Postgraduate", "Master's", "PhD")
df$`Highest Degree` <- mapvalues(df$`Highest Degree`, abschluss, degree)

df$Gender <- mapvalues(df$Gender, c('männlich', 'weiblich'), c('Male', 'Female'))
df

## # A tibble: 2,460 × 24
##    Name    Age Gender Place of B…¹ Highe…² Subject Occup…³ Mothe…⁴ Best …⁵ Trait
##    <chr> <dbl> <fct>  <chr>        <ord>   <chr>   <chr>   <fct>   <fct>   <fct>
##  1 Jan T    21 Male   Deutschland  Baccal… <NA>    <NA>    Deutsch Russia… Inte…
##  2 Jan T    21 Male   Deutschland  Baccal… <NA>    <NA>    Deutsch Russia… Poli…
##  3 Jan T    21 Male   Deutschland  Baccal… <NA>    <NA>    Deutsch Russia… Conf…
##  4 Jan T    21 Male   Deutschland  Baccal… <NA>    <NA>    Deutsch Russia… Comp…
##  5 Jan T    21 Male   Deutschland  Baccal… <NA>    <NA>    Deutsch Russia… Arro…
##  6 Jan T    21 Male   Deutschland  Baccal… <NA>    <NA>    Deutsch Russia… Cons…
##  7 Jan T    21 Male   Deutschland  Baccal… <NA>    <NA>    Deutsch Russia… Frie…
##  8 Jan T    21 Male   Deutschland  Baccal… <NA>    <NA>    Deutsch Russia… Symp…
##  9 Jan T    21 Male   Deutschland  Baccal… <NA>    <NA>    Deutsch Russia… Rough
## 10 Jan T    21 Male   Deutschland  Baccal… <NA>    <NA>    Deutsch Russia… Educ…
## # … with 2,450 more rows, 14 more variables: Speaker <chr>, Score <dbl>,
## #   `Language 1` <chr>, `Level 1` <chr>, `Language 2` <chr>, `Level 2` <chr>,
## #   `Language 3` <chr>, `Level 3` <chr>, `Language 4` <chr>, `Level 4` <chr>,
## #   Languages <ord>, `German Preference?` <chr>, German_Pref_01 <dbl>,
## #   `Trait Group` <fct>, and abbreviated variable names ¹​`Place of Birth`,
## #   ²​`Highest Degree`, ³​Occupation, ⁴​`Mother tongue`, ⁵​`Best Speaker`

unique(df$Languages)

## [1] 2 3 4 1
## Levels: 1 < 2 < 3 < 4

Dataset for Demographic and summarized results

cols_r <- c('Name','Age','Gender','Place of Birth','Highest Degree','Subject','Occupation','Mother tongue','Best Speaker','Languages','German Preference?','German_Pref_01')
df_reduced <- df[cols_r]
df_reduced <- df_reduced[!duplicated(df_reduced$Name),]
df_reduced

## # A tibble: 41 × 12
##    Name       Age Gender Place…¹ Highe…² Subject Occup…³ Mothe…⁴ Best …⁵ Langu…⁶
##    <chr>    <dbl> <fct>  <chr>   <ord>   <chr>   <chr>   <fct>   <fct>   <ord>  
##  1 Jan T       21 Male   Deutsc… Baccal… <NA>    <NA>    Deutsch Russia… 2      
##  2 Maya R.     22 Female Deutsc… Bachel… Biolog… <NA>    Deutsch German… 3      
##  3 Denise …    25 Female <NA>    Baccal… <NA>    Custom… Deutsch German… 2      
##  4 Omisha B    21 Female Deutsc… Baccal… <NA>    <NA>    Deutsch German… 3      
##  5 Gesa T.     25 Female Deutsc… Master… Nachha… Stellv… Deutsch German… 2      
##  6 Pia R.      24 Female Deutsc… Baccal… <NA>    <NA>    Deutsch Russia… 4      
##  7 Alicia …    22 Female <NA>    Baccal… <NA>    <NA>    Deutsch Russia… 1      
##  8 Julia K.    23 Female Deutsc… Baccal… <NA>    <NA>    Deutsch German… 2      
##  9 Anna E.     23 Female <NA>    Bachel… Landwi… <NA>    Deutsch German… 3      
## 10 Lukas V.    23 Male   Deutsc… Baccal… <NA>    Studen… Deutsch German… 1      
## # … with 31 more rows, 2 more variables: `German Preference?` <chr>,
## #   German_Pref_01 <dbl>, and abbreviated variable names ¹​`Place of Birth`,
## #   ²​`Highest Degree`, ³​Occupation, ⁴​`Mother tongue`, ⁵​`Best Speaker`,
## #   ⁶​Languages
…
Negative Traits

df_tr <- df[which(df$`Trait Group`=="Negative"),]
unique(df_tr$`Trait`)

## [1] Arrogant   Rough      Aggressive
## 15 Levels: Aggressive Arrogant Emotional Serious Friendly Educated ... Sympathetic

df_tr

## # A tibble: 492 × 24
##    Name    Age Gender Place of B…¹ Highe…² Subject Occup…³ Mothe…⁴ Best …⁵ Trait
##    <chr> <dbl> <fct>  <chr>        <ord>   <chr>   <chr>   <fct>   <fct>   <fct>
##  1 Jan T    21 Male   Deutschland  Baccal… <NA>    <NA>    Deutsch Russia… Arro…
##  2 Jan T    21 Male   Deutschland  Baccal… <NA>    <NA>    Deutsch Russia… Rough
##  3 Jan T    21 Male   Deutschland  Baccal… <NA>    <NA>    Deutsch Russia… Aggr…
##  4 Jan T    21 Male   Deutschland  Baccal… <NA>    <NA>    Deutsch Russia… Arro…
##  5 Jan T    21 Male   Deutschland  Baccal… <NA>    <NA>    Deutsch Russia… Rough
##  6 Jan T    21 Male   Deutschland  Baccal… <NA>    <NA>    Deutsch Russia… Aggr…
##  7 Jan T    21 Male   Deutschland  Baccal… <NA>    <NA>    Deutsch Russia… Arro…
##  8 Jan T    21 Male   Deutschland  Baccal… <NA>    <NA>    Deutsch Russia… Rough
##  9 Jan T    21 Male   Deutschland  Baccal… <NA>    <NA>    Deutsch Russia… Aggr…
## 10 Jan T    21 Male   Deutschland  Baccal… <NA>    <NA>    Deutsch Russia… Arro…
## # … with 482 more rows, 14 more variables: Speaker <chr>, Score <dbl>,
## #   `Language 1` <chr>, `Level 1` <chr>, `Language 2` <chr>, `Level 2` <chr>,
## #   `Language 3` <chr>, `Level 3` <chr>, `Language 4` <chr>, `Level 4` <chr>,
## #   Languages <ord>, `German Preference?` <chr>, German_Pref_01 <dbl>,
## #   `Trait Group` <fct>, and abbreviated variable names ¹​`Place of Birth`,
## #   ²​`Highest Degree`, ³​Occupation, ⁴​`Mother tongue`, ⁵​`Best Speaker`
…
