…
    ## ! Using an auto-discovered, cached token.

    ## ✔ Reading from "Survey Results".

    ## ✔ Range ''Final''.

``` r
dataset
```

    ## # A tibble: 6,440 × 27
    ##    Submission          Ich bestätige, dass ich die oben…¹ Ich erkläre mich dam…²
    ##    <dttm>              <chr>                              <chr>                 
    ##  1 2023-01-09 11:09:45 Ja                                 Ja                    
    ##  2 2023-01-09 11:09:45 Ja                                 Ja                    
    ##  3 2023-01-09 11:09:45 Ja                                 Ja                    
    ##  4 2023-01-09 11:09:45 Ja                                 Ja                    
    ##  5 2023-01-09 11:09:45 Ja                                 Ja                    
    ##  6 2023-01-09 11:09:45 Ja                                 Ja                    
    ##  7 2023-01-09 11:09:45 Ja                                 Ja                    
    ##  8 2023-01-09 11:09:45 Ja                                 Ja                    
    ##  9 2023-01-09 11:09:45 Ja                                 Ja                    
    ## 10 2023-01-09 11:09:45 Ja                                 Ja                    
    ## # ℹ 6,430 more rows
    ## # ℹ abbreviated names:
    ## #   ¹​`Ich bestätige, dass ich die oben genannten Informationen für Teilnehmer gelesen und versta...`,
    ## #   ²​`Ich erkläre mich damit einverstanden, an einem sprachwissenschaftlichen Forschungsprojekt ...`
    ## # ℹ 24 more variables:
    ## #   `Mir ist bekannt, dass ich meine Daten jederzeit und ohne Angabe von Gründen zurückziehen k...` <chr>,
    ## #   `Ich bin damit einverstanden, dass meine Antworten zu Forschungszwecken verwendet werden dü...` <chr>, …
…
cols <- c('Name','Alter','Geschlecht','Geburtsort','Höchster Bildungsabschluss','Fach','Beruf','Muttersprache','Besten Aufnahme','Charaktereigenschaften','Aufnahme','Score','Sprache 1','Level 1','Sprache 2','Level 2','Sprache 3','Level 3','Sprache 4','Level 4')
df <- df[cols]
df['nlang'] <- 4 - is.na(df$`Sprache 1`) - is.na(df$`Sprache 2`) - is.na(df$`Sprache 3`) - is.na(df$`Sprache 4`)
df$Charaktereigenschaften <- as.factor(df$Charaktereigenschaften)
df$Geschlecht <- as.factor(df$Geschlecht)
df$Muttersprache <- as.factor(df$Muttersprache)
df$`Höchster Bildungsabschluss` <- factor(df$`Höchster Bildungsabschluss`,ordered = TRUE, 
                                          levels = c("Unterer Schulabschluss", "Abitur oder gleichwertiger Abschluss","Bachelor","Postgraduierten-Abschluss","Master-Abschluss","Doktorat"))
df['German_Pref'] <- (df$`Besten Aufnahme`=="Sprecher/in 1" | df$`Besten Aufnahme`=="Sprecher/in 2")
df$German_Pref_01 <- as.numeric(as.factor(df$German_Pref))-1
df$`Besten Aufnahme` <- as.factor(df$`Besten Aufnahme`)
df
```

    ## # A tibble: 2,460 × 23
    ##    Name  Alter Geschlecht Geburtsort  `Höchster Bildungsabschluss`   Fach  Beruf
    ##    <chr> <dbl> <fct>      <chr>       <ord>                          <chr> <chr>
    ##  1 Jan T    21 männlich   Deutschland Abitur oder gleichwertiger Ab… <NA>  <NA> 
    ##  2 Jan T    21 männlich   Deutschland Abitur oder gleichwertiger Ab… <NA>  <NA> 
    ##  3 Jan T    21 männlich   Deutschland Abitur oder gleichwertiger Ab… <NA>  <NA> 
    ##  4 Jan T    21 männlich   Deutschland Abitur oder gleichwertiger Ab… <NA>  <NA> 
    ##  5 Jan T    21 männlich   Deutschland Abitur oder gleichwertiger Ab… <NA>  <NA> 
    ##  6 Jan T    21 männlich   Deutschland Abitur oder gleichwertiger Ab… <NA>  <NA> 
    ##  7 Jan T    21 männlich   Deutschland Abitur oder gleichwertiger Ab… <NA>  <NA> 
    ##  8 Jan T    21 männlich   Deutschland Abitur oder gleichwertiger Ab… <NA>  <NA> 
    ##  9 Jan T    21 männlich   Deutschland Abitur oder gleichwertiger Ab… <NA>  <NA> 
    ## 10 Jan T    21 männlich   Deutschland Abitur oder gleichwertiger Ab… <NA>  <NA> 
    ## # ℹ 2,450 more rows
    ## # ℹ 16 more variables: Muttersprache <fct>, `Besten Aufnahme` <fct>,
    ## #   Charaktereigenschaften <fct>, Aufnahme <dbl>, Score <dbl>,
    ## #   `Sprache 1` <chr>, `Level 1` <chr>, `Sprache 2` <chr>, `Level 2` <chr>,
    ## #   `Sprache 3` <chr>, `Level 3` <chr>, `Sprache 4` <chr>, `Level 4` <chr>,
    ## #   nlang <dbl>, German_Pref <lgl>, German_Pref_01 <dbl>

``` r
cols_r <- c('Name','Alter','Geschlecht','Geburtsort','Höchster Bildungsabschluss','Fach','Beruf','Muttersprache','Besten Aufnahme','nlang','German_Pref','German_Pref_01')
df_reduced <- df[cols_r]
df_reduced <- df_reduced[!duplicated(df_reduced$Name),]
df_reduced
```

    ## # A tibble: 41 × 12
    ##    Name      Alter Geschlecht Geburtsort  Höchster Bildungsabschlu…¹ Fach  Beruf
    ##    <chr>     <dbl> <fct>      <chr>       <ord>                      <chr> <chr>
    ##  1 Jan T        21 männlich   Deutschland Abitur oder gleichwertige… <NA>  <NA> 
    ##  2 Maya R.      22 weiblich   Deutschland Bachelor                   Biol… <NA> 
    ##  3 Denise N.    25 weiblich   <NA>        Abitur oder gleichwertige… <NA>  Cust…
    ##  4 Omisha B     21 weiblich   Deutschland Abitur oder gleichwertige… <NA>  <NA> 
    ##  5 Gesa T.      25 weiblich   Deutschland Master-Abschluss           Nach… Stel…
    ##  6 Pia R.       24 weiblich   Deutschland Abitur oder gleichwertige… <NA>  <NA> 
    ##  7 Alicia H.    22 weiblich   <NA>        Abitur oder gleichwertige… <NA>  <NA> 
    ##  8 Julia K.     23 weiblich   Deutschland Abitur oder gleichwertige… <NA>  <NA> 
    ##  9 Anna E.      23 weiblich   <NA>        Bachelor                   Land… <NA> 
    ## 10 Lukas V.     23 männlich   Deutschland Abitur oder gleichwertige… <NA>  Stud…
    ## # ℹ 31 more rows
    ## # ℹ abbreviated name: ¹​`Höchster Bildungsabschluss`
    ## # ℹ 5 more variables: Muttersprache <fct>, `Besten Aufnahme` <fct>,
    ## #   nlang <dbl>, German_Pref <lgl>, German_Pref_01 <dbl>
…
